Index,coefficient
count_user_logs,0.169660773
page_thumbs_down,0.104657757
page_cancel,0.104536834
page_thumbs_up,0.092760587
max_session,0.082944715
avg_length,0.074209308
page_help,0.062870942
page_nextsong,0.042895356
page_home,0.040478617
page_roll_advert,0.037381972
page_submit_downgrade,0.035889352
page_add_to_playlist,0.031578644
page_add_friend,0.029005534
page_settings,0.024866203
page_logout,0.020806157
page_upgrade,0.015079631
page_submit_upgrade,0.010005134
page_error,0.009865733
page_save_settings,0.003945045
page_about,0.003354766
gender_F,0.003206939
